Week 4 Group Lab
…
1d. Create a new numeric variable called age, equal to 2016 - (the year of birth). Use group_by, summarise to find the minimum and maximum age of each sports, and order results by the asceding order of minimun age

rio %>% group_by(sport) %>% mutate(age = 2016 - year_of_birth) %>% summarise(maxage=max(age),minage=min(age)) %>% arrange(desc(minage))

## # A tibble: 28 x 3
##    sport      maxage minage
##    <fct>       <dbl>  <dbl>
##  1 basketball     39     20
##  2 badminton      40     19
##  3 handball       44     19
##  4 judo           39     19
##  5 tennis         44     19
##  6 triathlon      38     19
##  7 boxing         37     18
##  8 canoe          49     18
##  9 cycling        45     18
## 10 equestrian     62     18
## #  with 18 more rows

#When using summarise, only columns specifies are printed out. 

Challenge Create a new summary table call sports, with a column called n_participants which contains the number of participants in each sport, a column called n_gold which contains the number of gold medels in each sports. Then calculate the ratio of the number of gold medals to participants for each sport. Which sport has the highest ratio? Which has the lowest?

Hint n() counts the total number of rows in each group, slice(c(1,n())) will return the first and last row

rio %>% group_by(sport) %>% summarise(n_participants =n(),n_gold=sum(gold),propgold=n_gold/n_participants) %>% arrange(desc(propgold))

## # A tibble: 28 x 4
##    sport        n_participants n_gold propgold
##    <fct>                 <int>  <int>    <dbl>
##  1 gymnastics              324     30   0.0926
##  2 rowing                  547     48   0.0878
##  3 fencing                 246     21   0.0854
##  4 basketball              288     24   0.0833
##  5 rugby sevens            300     25   0.0833
##  6 aquatics               1445    120   0.0830
##  7 canoe                   331     27   0.0816
##  8 handball                363     29   0.0799
##  9 hockey                  432     34   0.0787
## 10 volleyball              384     28   0.0729
## #  with 18 more rows
…
